Fetch Data for a Participant — sample_FetchParticipantData • gsm.app
…
#> [1] "ASIAN"
#> 
#> $metadata$ethnicity
#> [1] "out of bound:Ethnic"
#> 
#> 
#> $metric_data
#> $metric_data$AdverseEvents
#> # A tibble: 0 × 7
#> # ℹ 7 variables: SubjectID <chr>, serious <chr>, start_date <date>,
#> #   end_date <date>, preferred_term <chr>, system_organ_class <chr>,
#> #   toxicity_grade <chr>
#> 
#> $metric_data$DataEntry
#> # A tibble: 77 × 5
#>    SubjectID data_entry_lag visit visit_date form                             
#>    <chr>              <int> <chr> <date>     <chr>                            
#>  1 0008                   5 Day 1 2004-11-13 Enrollment                       
#>  2 0008                   1 Day 1 2004-11-13 PK                               
#>  3 0008                   0 Day 1 2004-11-13 Prior and Concomitant Medication 
#>  4 0008                   5 Day 1 2004-11-13 Study Drug Accountability        
#>  5 0008                   3 Day 1 2004-11-13 Study Drug Administration (DRUG1)
#>  6 0008                   0 Day 1 2004-11-13 Study Drug Administration (DRUG2)
#>  7 0008                   7 Day 1 2004-11-13 Study Drug Administration (DRUG3)
#>  8 0008                   1 Day 1 2004-11-13 Study Drug Administration (PK)   
#>  9 0008                   8 Day 1 2004-11-13 Visit Date                       
#> 10 0008                   5 Day 1 2004-11-13 Vital Signs Performed            
#> # ℹ 67 more rows
#> 
#> $metric_data$Enrollment
#> # A tibble: 1 × 5
#>   SubjectID IntakeID        enrolled enrollment_date screen_failure_reason
#>   <chr>     <chr>           <chr>    <date>          <chr>                
#> 1 0008      X1030008-069XXX Y        2004-10-17      ""                   
#> 
#> $metric_data$Lab
#> # A tibble: 365 × 6
#>    SubjectID toxicity_grade visit     visit_date lab_test                 result
#>    <chr>     <chr>          <chr>     <date>     <chr>                     <dbl>
#>  1 0008      "1"            Screening 2004-10-17 ALT (SGPT)               66    
#>  2 0008      "2"            Screening 2004-10-17 AST (SGOT)               99    
#>  3 0008      "2"            Screening 2004-10-17 Albumin-QT               27    
#>  4 0008      "3"            Screening 2004-10-17 Alkaline Phosphatase    680    
#>  5 0008      ""             Screening 2004-10-17 Basophils                 0.100
#>  6 0008      ""             Screening 2004-10-17 Basophils (%)             1.10 
#>  7 0008      ""             Screening 2004-10-17 Calcium (EDTA)            2.06 
#>  8 0008      "0"            Screening 2004-10-17 Calcium Corrected for …   2.32 
#>  9 0008      ""             Screening 2004-10-17 Cholesterol (High Perf…   3.80 
#> 10 0008      "0"            Screening 2004-10-17 Creatine Kinase         164    
#> # ℹ 355 more rows
…
